%!PS-Adobe-3.0 EPSF-3.0
%%Creator: cairo 1.8.8 (http://cairographics.org)
%%CreationDate: Sat Oct 15 13:15:24 2011
%%Pages: 1
%%BoundingBox: 7 4 458 74
%%DocumentData: Clean7Bit
%%LanguageLevel: 2
%%EndComments
%%BeginProlog
/cairo_eps_state save def
/dict_count countdictstack def
/op_count count 1 sub def
userdict begin
/q { gsave } bind def
/Q { grestore } bind def
/cm { 6 array astore concat } bind def
/w { setlinewidth } bind def
/J { setlinecap } bind def
/j { setlinejoin } bind def
/M { setmiterlimit } bind def
/d { setdash } bind def
/m { moveto } bind def
/l { lineto } bind def
/c { curveto } bind def
/h { closepath } bind def
/re { exch dup neg 3 1 roll 5 3 roll moveto 0 rlineto
      0 exch rlineto 0 rlineto closepath } bind def
/S { stroke } bind def
/f { fill } bind def
/f* { eofill } bind def
/B { fill stroke } bind def
/B* { eofill stroke } bind def
/n { newpath } bind def
/W { clip } bind def
/W* { eoclip } bind def
/BT { } bind def
/ET { } bind def
/pdfmark where { pop globaldict /?pdfmark /exec load put }
    { globaldict begin /?pdfmark /pop load def /pdfmark
    /cleartomark load def end } ifelse
/BDC { mark 3 1 roll /BDC pdfmark } bind def
/EMC { mark /EMC pdfmark } bind def
/cairo_store_point { /cairo_point_y exch def /cairo_point_x exch def } def
/Tj { show currentpoint cairo_store_point } bind def
/TJ {
  {
    dup
    type /stringtype eq
    { show } { -0.001 mul 0 cairo_font_matrix dtransform rmoveto } ifelse
  } forall
  currentpoint cairo_store_point
} bind def
/cairo_selectfont { cairo_font_matrix aload pop pop pop 0 0 6 array astore
    cairo_font exch selectfont cairo_point_x cairo_point_y moveto } bind def
/Tf { pop /cairo_font exch def /cairo_font_matrix where
      { pop cairo_selectfont } if } bind def
/Td { matrix translate cairo_font_matrix matrix concatmatrix dup
      /cairo_font_matrix exch def dup 4 get exch 5 get cairo_store_point
      /cairo_font where { pop cairo_selectfont } if } bind def
/Tm { 2 copy 8 2 roll 6 array astore /cairo_font_matrix exch def
      cairo_store_point /cairo_font where { pop cairo_selectfont } if } bind def
/g { setgray } bind def
/rg { setrgbcolor } bind def
/d1 { setcachedevice } bind def
%%EndProlog
%%Page: 1 1
%%BeginPageSetup
%%PageBoundingBox: 7 4 458 74
%%EndPageSetup
q
0.768627 0.0705882 0.188235 rg
42.863 25.136 m 42.102 25.82 41.129 25.609 39.137 24.613 c 36.891 
23.492 32.922 22.007 29.594 22.007 c 27.348 22.007 25.785 21.968 23.379 
22.812 c 12.836 26.499 7.906 34.636 7.906 47.066 c 7.906 58.288 15.793 
68.511 23.461 71.441 c 25.664 72.281 27.469 72.48 29.793 72.48 c 34.363 
72.48 39.297 70.156 40.418 69.515 c 41.539 68.874 42.984 68.796 43.586 
69.074 c 44.188 69.355 44.387 69.234 45.066 70.519 c 45.871 70.519 l 
46.031 68.835 45.992 56.847 45.871 55.324 c 44.828 55.324 l 43.504 
59.734 42.113 63.468 39.215 66.749 c 35.566 70.878 31.695 71.468 27.828 
70.597 c 24.984 69.956 22.859 67.511 21.695 64.023 c 20.672 60.956 
19.492 53.558 19.492 47.343 c 19.492 41.652 19.719 35.406 20.855 31.429 
c 21.977 27.499 23.242 25.593 26.867 24.132 c 29.953 22.89 34.441 
23.374 38.492 27.499 c 42.941 32.031 44.625 39.406 44.625 39.406 c 
45.711 39.406 l 45.871 37.601 45.551 24.816 45.348 23.011 c 44.266 
23.011 l 43.945 23.812 43.563 24.511 42.863 25.136 c h
67.398 25.863 m 66.504 24.804 65.254 24.179 63.75 24.179 c 60.586 
24.179 59.223 27.011 59.223 30.195 c 59.223 31.394 59.219 33.874 59.344 
34.843 c 59.676 37.445 61.266 38.925 64.273 39.253 c 66.039 39.449 
67.84 39.495 68.965 39.452 c 68.965 41.019 l 62.871 40.859 58.875 
40.136 56.457 39.413 c 52.285 38.171 49.879 35.378 49.32 32.437 c 
48.719 29.273 49.641 26.464 51.363 25.062 c 54.098 22.835 56.895 22.136 
60.383 22.136 c 64.676 22.136 67.641 24.179 69.242 25.581 c 69.242 
25.581 70.676 23.898 71.168 23.499 c 72.25 22.617 74.254 21.894 75.898 
21.894 c 77.582 21.894 79.57 22.589 80.508 23.499 c 81.793 24.742 
82.953 26.546 83.395 28.39 c 82.395 28.671 l 82.113 27.749 81.512 
26.304 80.629 25.702 c 79.945 25.238 79.191 25.425 78.625 26.546 c 
78.344 27.097 78.344 28.148 78.344 29.113 c 78.344 45.867 l 78.344 
47.472 77.418 49.191 76.98 49.835 c 76.219 50.96 74.563 52.667 70.445 
53.804 c 66.676 54.847 62.469 54.769 59.621 54.085 c 56.973 53.452 
52.043 51.359 52.043 46.71 c 52.043 44.062 54.371 42.3 56.574 42.3 c 
58.781 42.3 61.145 44.062 61.145 46.628 c 61.145 49.195 58.941 50.316 
57.98 50.679 c 57.02 51.038 57.863 51.788 58.02 51.878 c 58.98 52.441 
60.223 53.202 63.191 53.202 c 66.918 53.202 68.965 52.359 68.965 47.429 
c 68.965 41.015 l 68.965 39.449 l 68.965 29.952 l 68.965 28.8 68.371 
27.011 67.398 25.863 c h
96.031 42.062 m 96.031 47.191 98.234 50.527 100.32 51.363 c 100.52 
51.441 100.719 51.242 100.68 51.042 c 100.59 50.601 99.957 50.199 
99.957 48.316 c 99.957 45.749 102.203 43.425 105.008 43.425 c 107.613 
43.425 109.98 45.87 109.98 48.437 c 109.98 51.562 108.055 54.089 
104.246 54.089 c 99.637 54.089 97.473 50.96 96.711 50.077 c 96.434 
49.757 96.109 49.597 96.109 50.238 c 96.109 54.929 l 95.473 54.285 
93.742 53.167 92.02 53.167 c 82.398 53.167 l 82.398 51.964 l 86.809 
51.964 l 86.809 24.019 l 82.156 24.019 l 82.156 22.816 l 101 22.816 l 
101 24.019 l 96.031 24.019 l 96.031 42.062 l h
125.551 47.093 m 126.672 49.335 128.98 51.581 131.766 51.581 c 134.328 
51.581 135.57 49.577 135.57 47.773 c 135.57 24.042 l 131.563 24.042 l 
131.563 22.82 l 148.801 22.82 l 148.801 24.042 l 145.152 24.042 l 
145.152 45.128 l 145.152 47.523 144.313 49.749 142.707 51.3 c 141.227 
52.738 138.176 54.07 135.492 54.07 c 133.168 54.07 130.855 53.253 
128.797 51.984 c 127.258 51.035 125.902 49.788 124.949 48.617 c 124.59 
48.175 124.266 48.277 124.266 48.835 c 124.266 54.933 l 123.629 54.288 
121.898 53.167 120.176 53.167 c 111.195 53.167 l 111.195 51.964 l 
114.805 51.964 l 114.805 24.023 l 110.957 24.023 l 110.957 22.82 l 
128.277 22.82 l 128.277 24.023 l 124.266 24.023 l 124.266 42.062 l 
124.27 43.726 124.867 45.73 125.551 47.093 c h
159.516 40.929 m 159.559 42.374 159.598 44.937 159.637 47.222 c 159.66 
48.507 159.77 50.39 160.32 51.273 c 160.969 52.312 162.125 52.956 
163.648 52.956 c 165.09 52.956 166 52.37 166.613 51.23 c 167.086 50.359 
167.336 48.745 167.336 47.382 c 167.328 44.898 167.414 42.249 167.414 
40.929 c 159.516 40.929 l 159.316 39.367 l 178.238 39.367 l 178.32 
40.167 178.328 41.929 177.676 43.976 c 176.996 46.113 174.938 49.3 
173.105 50.91 c 170.781 52.956 167.414 54.281 163.727 54.281 c 160.52 
54.281 157.461 53.089 154.426 50.589 c 150.82 47.624 148.734 42.613 
148.734 37.601 c 148.734 33.394 150.125 29.249 153.301 26.015 c 155.629 
23.652 160.344 21.968 164.527 21.968 c 168.738 21.968 172.582 23.57 
175.234 26.859 c 176.922 28.956 177.918 31.308 178.602 34.035 c 177.277 
34.394 l 176.234 31.269 175.016 29.117 173.426 27.339 c 171.742 25.456 
168.656 23.972 166.133 23.972 c 163.766 23.972 162.082 24.894 160.918 
26.699 c 159.848 28.363 159.637 30.148 159.477 32.07 c 159.316 33.995 
159.316 36.32 159.316 39.367 c 159.516 40.929 l h
238.582 41.187 m 238.625 42.632 238.664 45.199 238.703 47.484 c 238.727 
48.769 238.836 50.648 239.387 51.535 c 240.031 52.57 241.191 53.214 
242.715 53.214 c 244.156 53.214 245.066 52.632 245.68 51.492 c 246.152 
50.617 246.402 49.007 246.402 47.644 c 246.395 45.16 246.48 42.511 
246.48 41.191 c 238.582 41.191 l 238.383 39.628 l 257.305 39.628 l 
257.387 40.429 257.395 42.191 256.742 44.238 c 256.063 46.374 254.008 
49.562 252.176 51.171 c 249.848 53.214 246.48 54.538 242.793 54.538 c 
239.586 54.538 236.531 53.347 233.492 50.851 c 229.883 47.886 227.801 
42.874 227.801 37.863 c 227.801 33.652 229.191 29.511 232.371 26.277 c 
234.699 23.91 239.41 22.226 243.594 22.226 c 247.805 22.226 251.648 
23.827 254.297 27.117 c 255.988 29.214 256.984 31.57 257.668 34.292 c 
256.344 34.656 l 255.301 31.527 254.086 29.374 252.496 27.601 c 250.813 
25.714 247.723 24.234 245.199 24.234 c 242.832 24.234 241.148 25.152 
239.988 26.956 c 238.914 28.62 238.703 30.406 238.543 32.331 c 238.383 
34.253 238.383 36.577 238.383 39.628 c 238.582 41.187 l h
183.734 20.917 m 182.652 20.394 181.227 19.429 180.406 18.671 c 179.281 
17.632 178.199 15.824 178.199 14.062 c 178.199 11.898 179.242 9.652 
181.328 8.046 c 184.109 5.91 187.836 4.96 191.992 4.96 c 195.219 4.96 
198.738 5.89 201.055 7.484 c 203.582 9.226 205.277 11.347 206.426 
14.179 c 207.008 15.617 207.508 18.39 207.508 20.355 c 207.508 22.117 
206.988 24.163 206.266 25.566 c 205.578 26.906 204.43 27.917 202.977 
28.535 c 201.656 29.093 199.973 29.374 198.008 29.374 c 186.262 29.374 
l 184.734 29.374 183.441 29.753 182.895 30.499 c 182.332 31.261 182.41 
32.14 183.055 32.863 c 183.809 33.714 185.531 34.566 186.941 34.706 c 
187.746 34.788 188.426 34.788 189.027 34.706 c 189.988 34.577 190.75 
34.148 192.996 34.148 c 195.242 34.148 198.359 34.921 200.254 36.031 c 
203.258 37.792 204.984 40.839 204.984 43.968 c 204.984 46.374 203.738 
49.14 202.137 50.863 c 202.605 51.476 204.055 53.003 204.82 53.308 c 
205.223 53.468 205.422 53.148 205.184 52.867 c 204.59 52.179 204.25 
50.816 204.863 49.581 c 205.477 48.343 206.57 47.535 208.191 47.535 c 
209.953 47.535 211.355 48.98 211.355 50.742 c 211.355 52.066 210.672 
53.195 209.473 54.031 c 208.77 54.519 207.871 54.792 206.906 54.792 c 
205.824 54.792 204.742 54.351 203.98 53.949 c 203.219 53.55 202.137 
52.546 201.254 51.624 c 199.129 53.148 196.484 54.273 193.234 54.273 c 
193.355 53.308 l 195.199 53.308 196.004 52.425 196.484 51.343 c 196.984 
50.214 197.004 49.156 197.004 47.257 c 197.004 41.242 l 197.004 39.558 
196.828 38.535 196.324 37.351 c 195.785 36.093 194.602 35.308 192.914 
35.308 c 191.23 35.308 190.07 36.152 189.508 37.593 c 189 38.898 
189.105 41.163 189.105 41.163 c 189.105 47.214 l 189.105 47.214 188.988 
49.742 189.75 51.343 c 190.113 52.117 191.16 53.308 193.355 53.308 c 
193.234 54.269 l 189.789 54.269 187.184 53.226 184.938 51.585 c 182.855 
50.058 181.047 47.175 181.047 44.249 c 181.047 41.32 182.508 37.992 
185.66 36.191 c 185.941 36.031 186.102 35.671 185.699 35.546 c 181.727 
34.359 179.684 31.46 179.684 27.894 c 179.684 25.093 181.395 22.632 
183.734 20.917 c 185.418 20.355 l 199.129 20.355 l 200.813 20.355 
201.848 20.226 202.898 19.632 c 204.332 18.827 204.82 17.628 204.82 
16.187 c 204.82 14.101 203.578 11.535 202.016 9.933 c 199.957 7.82 
196.523 6.202 192.676 6.202 c 189.066 6.202 186.246 7.351 184.297 9.292 
c 182.945 10.632 182.449 12.417 182.449 14.503 c 182.449 17.027 183.656 
18.992 185.418 20.355 c 183.734 20.917 l h
224.605 54.929 m 223.969 54.285 222.242 53.167 220.516 53.167 c 211.457 
53.167 l 211.457 51.964 l 215.305 51.964 l 215.305 24.019 l 211.297 
24.019 l 211.297 22.816 l 228.215 22.816 l 228.215 24.019 l 224.605 
24.019 l 224.605 54.929 l h
219.676 60.285 m 222.68 60.285 225.117 62.718 225.117 65.726 c 225.117 
68.734 222.68 71.171 219.676 71.171 c 216.668 71.171 214.23 68.734 
214.23 65.726 c 214.23 62.718 216.668 60.285 219.676 60.285 c h
322.168 24.292 m 317.32 24.292 l 317.32 69.726 l 322.242 69.726 l 
322.242 71.163 l 306.047 71.163 l 294.559 38.12 l 282.563 71.163 l 
265.242 71.163 l 265.242 69.718 l 270.422 69.718 l 270.422 29.699 l 
270.422 26.933 269.594 26.179 269.09 25.601 c 268.492 24.917 267.734 
24.382 266.008 24.382 c 265.047 24.382 l 265.047 22.855 l 278.324 
22.855 l 278.324 24.327 l 277.473 24.327 l 275.871 24.327 274.586 
24.546 273.621 25.585 c 272.883 26.378 272.234 28.624 272.234 30.187 c 
272.234 68.234 l 288.707 22.855 l 290.91 22.855 l 306.453 67.906 l 
306.453 24.292 l 301.191 24.292 l 301.191 22.855 l 322.168 22.855 l 
322.168 24.292 l h
332.176 39.632 m 351.102 39.632 l 351.18 40.433 351.191 42.195 350.539 
44.242 c 349.855 46.378 347.801 49.566 345.969 51.175 c 343.645 53.222 
340.277 54.546 336.586 54.546 c 333.379 54.546 330.324 53.355 327.285 
50.855 c 323.676 47.89 321.594 42.878 321.594 37.867 c 321.594 33.66 
322.984 29.515 326.164 26.281 c 328.492 23.913 333.203 22.23 337.387 
22.23 c 341.598 22.23 345.441 23.835 348.094 27.12 c 349.781 29.218 
350.777 31.574 351.461 34.3 c 350.137 34.66 l 349.094 31.535 347.879 
29.382 346.289 27.605 c 344.605 25.718 341.52 24.238 338.992 24.238 c 
336.625 24.238 334.945 25.16 333.781 26.964 c 332.707 28.628 332.496 
30.41 332.336 32.335 c 332.176 34.257 332.176 36.585 332.176 39.632 c 
332.379 41.195 l 332.418 42.636 332.457 45.202 332.496 47.488 c 332.52 
48.773 332.629 50.652 333.18 51.538 c 333.828 52.577 334.984 53.222 
336.508 53.222 c 337.949 53.222 338.859 52.636 339.473 51.495 c 339.941 
50.624 340.199 49.011 340.195 47.648 c 340.191 45.163 340.277 42.515 
340.277 41.195 c 332.379 41.195 l 332.176 39.632 l h
351.41 69.929 m 354.82 69.929 l 354.82 24.148 l 350.734 24.148 l 
350.738 22.843 l 368.129 22.843 l 368.129 24.136 l 364.16 24.136 l 
364.16 73.035 l 363.527 72.386 361.805 71.257 360.082 71.245 c 351.41 
71.249 l 351.41 69.929 l h
370.453 69.929 m 373.859 69.929 l 373.859 24.148 l 369.773 24.148 l 
369.777 22.843 l 387.172 22.843 l 387.172 24.136 l 383.203 24.136 l 
383.203 73.035 l 382.574 72.386 380.848 71.257 379.125 71.245 c 370.453 
71.249 l 370.453 69.929 l h
403.301 53.042 m 406.438 53.042 408.977 51.843 408.977 43.64 c 408.977 
33.214 l 408.977 25.011 406.438 23.574 403.301 23.574 c 400.168 23.574 
397.625 25.011 397.625 33.214 c 397.625 43.64 l 397.625 51.843 400.168 
53.042 403.301 53.042 c 403.184 54.222 l 394.566 54.222 386.988 46.765 
386.988 38.425 c 386.988 29.445 393.711 22.23 403.184 22.23 c 412.441 
22.23 419.277 29.632 419.277 38.613 c 419.277 47.378 412.012 54.222 
403.184 54.222 c 403.301 53.042 l h
434.117 47.097 m 435.238 49.343 437.547 51.589 440.332 51.589 c 442.898 
51.589 444.141 49.585 444.141 47.781 c 444.141 24.046 l 440.133 24.046 
l 440.133 22.824 l 457.371 22.824 l 457.371 24.046 l 453.723 24.046 l 
453.723 45.136 l 453.723 47.531 452.879 49.753 451.277 51.308 c 449.797 
52.742 446.746 54.074 444.063 54.074 c 441.734 54.074 439.422 53.261 
437.363 51.992 c 435.828 51.042 434.473 49.796 433.516 48.624 c 433.156 
48.183 432.832 48.281 432.832 48.843 c 432.832 54.937 l 432.199 54.296 
430.469 53.171 428.746 53.171 c 419.766 53.171 l 419.766 51.972 l 
423.375 51.972 l 423.375 24.027 l 419.523 24.027 l 419.523 22.824 l 
436.84 22.824 l 436.84 24.027 l 432.832 24.027 l 432.832 42.07 l 
432.836 43.734 433.438 45.738 434.117 47.097 c h
434.117 47.097 m f
Q
showpage
%%Trailer
count op_count sub {pop} repeat
countdictstack dict_count sub {end} repeat
cairo_eps_state restore
%%EOF
