%!PS-Adobe-3.0 EPSF-3.0
%%Creator: cairo 1.8.8 (http://cairographics.org)
%%CreationDate: Sat Oct 15 13:14:25 2011
%%Pages: 1
%%BoundingBox: 33 34 394 553
%%DocumentData: Clean7Bit
%%LanguageLevel: 2
%%EndComments
%%BeginProlog
/cairo_eps_state save def
/dict_count countdictstack def
/op_count count 1 sub def
userdict begin
/q { gsave } bind def
/Q { grestore } bind def
/cm { 6 array astore concat } bind def
/w { setlinewidth } bind def
/J { setlinecap } bind def
/j { setlinejoin } bind def
/M { setmiterlimit } bind def
/d { setdash } bind def
/m { moveto } bind def
/l { lineto } bind def
/c { curveto } bind def
/h { closepath } bind def
/re { exch dup neg 3 1 roll 5 3 roll moveto 0 rlineto
      0 exch rlineto 0 rlineto closepath } bind def
/S { stroke } bind def
/f { fill } bind def
/f* { eofill } bind def
/B { fill stroke } bind def
/B* { eofill stroke } bind def
/n { newpath } bind def
/W { clip } bind def
/W* { eoclip } bind def
/BT { } bind def
/ET { } bind def
/pdfmark where { pop globaldict /?pdfmark /exec load put }
    { globaldict begin /?pdfmark /pop load def /pdfmark
    /cleartomark load def end } ifelse
/BDC { mark 3 1 roll /BDC pdfmark } bind def
/EMC { mark /EMC pdfmark } bind def
/cairo_store_point { /cairo_point_y exch def /cairo_point_x exch def } def
/Tj { show currentpoint cairo_store_point } bind def
/TJ {
  {
    dup
    type /stringtype eq
    { show } { -0.001 mul 0 cairo_font_matrix dtransform rmoveto } ifelse
  } forall
  currentpoint cairo_store_point
} bind def
/cairo_selectfont { cairo_font_matrix aload pop pop pop 0 0 6 array astore
    cairo_font exch selectfont cairo_point_x cairo_point_y moveto } bind def
/Tf { pop /cairo_font exch def /cairo_font_matrix where
      { pop cairo_selectfont } if } bind def
/Td { matrix translate cairo_font_matrix matrix concatmatrix dup
      /cairo_font_matrix exch def dup 4 get exch 5 get cairo_store_point
      /cairo_font where { pop cairo_selectfont } if } bind def
/Tm { 2 copy 8 2 roll 6 array astore /cairo_font_matrix exch def
      cairo_store_point /cairo_font where { pop cairo_selectfont } if } bind def
/g { setgray } bind def
/rg { setrgbcolor } bind def
/d1 { setcachedevice } bind def
%%EndProlog
%%Page: 1 1
%%BeginPageSetup
%%PageBoundingBox: 33 34 394 553
%%EndPageSetup
q
0.564706 0 0.12549 rg
33.445 165.097 m 122.188 165.128 l 122.188 406.007 l 130.754 473.82 
264.211 499.956 260.645 378.46 c 264.211 378.46 l 299.898 427.909 
338.434 391.878 346.289 377.753 c 349.137 377.753 l 354.133 475.945 
290.188 547.241 194.988 551.53 c 100.781 555.765 37.262 475.945 35.117 
410.956 c 32.973 345.964 33.445 165.097 33.445 165.097 c h
33.445 165.097 m f
0.8 w
0 J
0 j
[] 0.0 d
4 M q 1 0 0 -1 0 580.799988 cm
33.445 415.703 m 122.188 415.672 l 122.188 174.793 l 130.754 106.98 
264.211 80.844 260.645 202.34 c 264.211 202.34 l 299.898 152.891 
338.434 188.922 346.289 203.047 c 349.137 203.047 l 354.133 104.855 
290.188 33.559 194.988 29.27 c 100.781 25.035 37.262 104.855 35.117 
169.844 c 32.973 234.836 33.445 415.703 33.445 415.703 c h
33.445 415.703 m S Q
303.891 318.413 m 324.938 318.413 342.008 334.987 342.008 355.433 c 
342.008 375.878 324.938 392.452 303.891 392.452 c 282.844 392.452 
265.777 375.878 265.777 355.433 c 265.777 334.987 282.844 318.413 
303.891 318.413 c h
303.891 318.413 m f
q 1 0 0 -1 0 580.799988 cm
303.891 262.387 m 324.938 262.387 342.008 245.813 342.008 225.367 c 
342.008 204.922 324.938 188.348 303.891 188.348 c 282.844 188.348 
265.777 204.922 265.777 225.367 c 265.777 245.813 282.844 262.387 
303.891 262.387 c h
303.891 262.387 m S Q
f
q 1 0 0 -1 0 580.799988 cm
S Q
259.215 165.128 m 347.719 165.128 l 347.719 274.624 l 376.262 289.452 
387.68 321.241 392.676 336.78 c 344.859 336.78 l 319.879 285.921 
267.066 314.886 261.359 337.487 c 216.398 337.487 l 222.102 302.878 
244.941 283.093 259.93 274.62 c 259.215 165.128 l h
259.215 165.128 m f
q 1 0 0 -1 0 580.799988 cm
259.215 415.672 m 347.719 415.672 l 347.719 306.176 l 376.262 291.348 
387.68 259.559 392.676 244.02 c 344.859 244.02 l 319.879 294.879 
267.066 265.914 261.359 243.313 c 216.398 243.313 l 222.102 277.922 
244.941 297.707 259.93 306.18 c 259.215 415.672 l h
259.215 415.672 m S Q
139.141 220.23 m 166.078 220.23 l 169.469 218.812 168.938 214.042 
166.438 212.456 c 157.16 212.456 l 157.16 169.191 l 155.02 165.831 
150.203 166.714 148.773 168.831 c 148.773 212.28 l 138.961 212.28 l 
135.566 214.925 136.82 219.695 139.141 220.23 c h
139.141 220.23 m f
q 1 0 0 -1 0 580.799988 cm
139.141 360.57 m 166.078 360.57 l 169.469 361.988 168.938 366.758 
166.438 368.344 c 157.16 368.344 l 157.16 411.609 l 155.02 414.969 
150.203 414.086 148.773 411.969 c 148.773 368.52 l 138.961 368.52 l 
135.566 365.875 136.82 361.105 139.141 360.57 c h
139.141 360.57 m S Q
174.109 219.163 m 174.109 169.366 l 175.355 167.597 179.848 166.046 
182.313 169.191 c 182.313 190.905 l 204.082 190.905 l 204.082 169.714 l 
206.66 167.534 210.129 167.429 211.578 169.714 c 211.578 218.812 l 
210.328 220.405 205.691 220.929 203.906 218.812 c 203.906 199.214 l 
182.672 199.214 l 182.672 218.987 l 180.352 221.288 175 220.929 174.109 
219.163 c h
174.109 219.163 m f
q 1 0 0 -1 0 580.799988 cm
174.109 361.637 m 174.109 411.434 l 175.355 413.203 179.848 414.754 
182.313 411.609 c 182.313 389.895 l 204.082 389.895 l 204.082 411.086 l 
206.66 413.266 210.129 413.371 211.578 411.086 c 211.578 361.988 l 
210.328 360.395 205.691 359.871 203.906 361.988 c 203.906 381.586 l 
182.672 381.586 l 182.672 361.813 l 180.352 359.512 175 359.871 174.109 
361.637 c h
174.109 361.637 m S Q
221.211 215.46 m 221.211 172.542 l 222.641 168.48 223.172 167.773 
226.391 166.714 c 245.125 166.714 l 246.371 169.191 246.191 173.601 
244.586 174.487 c 231.559 174.487 l 230.313 175.546 229.957 176.077 
229.773 176.78 c 229.773 187.905 l 229.957 188.788 230.313 188.964 
231.203 189.148 c 243.336 189.148 l 245.66 190.202 244.941 195.152 
243.695 196.21 c 242.445 197.269 243.156 196.562 243.156 196.562 c 
231.383 196.562 l 230.133 197.62 229.422 198.679 229.422 199.737 c 
229.238 200.273 229.422 209.452 229.422 209.452 c 229.773 210.515 
230.488 211.398 231.383 211.573 c 243.695 211.573 l 246.547 212.28 
246.547 216.339 244.586 218.636 c 226.207 218.636 l 223.887 218.105 
222.281 218.288 221.211 215.46 c h
221.211 215.46 m f
q 1 0 0 -1 0 580.799988 cm
221.211 365.34 m 221.211 408.258 l 222.641 412.32 223.172 413.027 
226.391 414.086 c 245.125 414.086 l 246.371 411.609 246.191 407.199 
244.586 406.313 c 231.559 406.313 l 230.313 405.254 229.957 404.723 
229.773 404.02 c 229.773 392.895 l 229.957 392.012 230.313 391.836 
231.203 391.652 c 243.336 391.652 l 245.66 390.598 244.941 385.648 
243.695 384.59 c 242.445 383.531 243.156 384.238 243.156 384.238 c 
231.383 384.238 l 230.133 383.18 229.422 382.121 229.422 381.063 c 
229.238 380.527 229.422 371.348 229.422 371.348 c 229.773 370.285 
230.488 369.402 231.383 369.227 c 243.695 369.227 l 246.547 368.52 
246.547 364.461 244.586 362.164 c 226.207 362.164 l 223.887 362.695 
222.281 362.512 221.211 365.34 c h
221.211 365.34 m S Q
38.684 150.823 m 38.684 104.554 l 41.004 102.257 46.355 103.495 46.895 
104.374 c 46.895 145.878 l 47.969 148.171 48.859 147.112 49.574 147.112 
c 58.73 148.765 67.992 133.648 48.32 131.57 c 47.07 130.335 46.18 
126.448 48.859 124.862 c 57.242 124.862 l 59.207 123.98 59.738 123.445 
60.277 121.503 c 60.277 104.73 l 61.699 102.612 66.879 102.964 67.234 
104.023 c 67.234 122.921 l 67.41 125.745 66.695 127.331 64.027 129.097 
c 61.055 131.054 63.844 130.691 64.375 131.394 c 67.594 134.394 71.516 
149.941 55.457 155.062 c 54.926 155.409 44.219 155.062 44.219 155.062 c 
41.004 155.062 38.684 150.823 38.684 150.823 c h
38.684 150.823 m f
q 1 0 0 -1 0 580.799988 cm
38.684 429.977 m 38.684 476.246 l 41.004 478.543 46.355 477.305 46.895 
476.426 c 46.895 434.922 l 47.969 432.629 48.859 433.688 49.574 433.688 
c 58.73 432.035 67.992 447.152 48.32 449.23 c 47.07 450.465 46.18 
454.352 48.859 455.938 c 57.242 455.938 l 59.207 456.82 59.738 457.355 
60.277 459.297 c 60.277 476.07 l 61.699 478.188 66.879 477.836 67.234 
476.777 c 67.234 457.879 l 67.41 455.055 66.695 453.469 64.027 451.703 
c 61.055 449.746 63.844 450.109 64.375 449.406 c 67.594 446.406 71.516 
430.859 55.457 425.738 c 54.926 425.391 44.219 425.738 44.219 425.738 c 
41.004 425.738 38.684 429.977 38.684 429.977 c h
38.684 429.977 m S Q
100.152 155.827 m 84.891 155.827 72.523 143.585 72.523 128.48 c 72.523 
113.378 84.891 101.132 100.152 101.132 c 115.41 101.132 127.781 113.378 
127.781 128.48 c 127.781 143.585 115.41 155.827 100.152 155.827 c h
100.332 109.878 m 89.949 109.878 81.531 118.206 81.531 128.48 c 81.531 
138.761 89.949 147.089 100.332 147.089 c 110.715 147.089 119.129 
138.761 119.129 128.48 c 119.125 118.206 110.715 109.878 100.332 
109.878 c h
100.332 109.878 m f
q 1 0 0 -1 0 580.799988 cm
100.152 424.973 m 84.891 424.973 72.523 437.215 72.523 452.32 c 72.523 
467.422 84.891 479.668 100.152 479.668 c 115.41 479.668 127.781 467.422 
127.781 452.32 c 127.781 437.215 115.41 424.973 100.152 424.973 c h
100.332 470.922 m 89.949 470.922 81.531 462.594 81.531 452.32 c 81.531 
442.039 89.949 433.711 100.332 433.711 c 110.715 433.711 119.129 
442.039 119.129 452.32 c 119.125 462.594 110.715 470.922 100.332 
470.922 c h
100.332 470.922 m S Q
157.875 131.042 m 153.77 131.394 156.977 133.159 157.875 133.335 c 
165.191 139.874 158.766 151.527 151.449 153.644 c 136.641 153.644 l 
133.965 153.12 132.891 150.116 132.891 149.941 c 132.891 106.14 l 
135.035 101.195 134.676 102.964 136.996 102.077 c 152.695 102.077 l 
162.512 105.964 172.324 120.269 157.875 131.042 c h
141.277 143.761 m 141.633 146.054 141.992 146.054 147.703 145.695 c 
153.414 145.347 154.484 138.456 150.023 135.632 c 145.566 132.812 
142.172 134.753 141.277 136.698 c 141.277 143.761 l h
150.559 109.851 m 143.777 109.851 l 142.531 110.378 143.063 109.499 
141.457 111.62 c 141.457 123.804 l 141.457 124.862 141.992 125.214 
143.063 125.573 c 149.844 125.573 l 156.266 125.573 159.656 113.206 
150.559 109.851 c h
150.559 109.851 m f
q 1 0 0 -1 0 580.799988 cm
157.875 449.758 m 153.77 449.406 156.977 447.641 157.875 447.465 c 
165.191 440.926 158.766 429.273 151.449 427.156 c 136.641 427.156 l 
133.965 427.68 132.891 430.684 132.891 430.859 c 132.891 474.66 l 
135.035 479.605 134.676 477.836 136.996 478.723 c 152.695 478.723 l 
162.512 474.836 172.324 460.531 157.875 449.758 c h
141.277 437.039 m 141.633 434.746 141.992 434.746 147.703 435.105 c 
153.414 435.453 154.484 442.344 150.023 445.168 c 145.566 447.988 
142.172 446.047 141.277 444.102 c 141.277 437.039 l h
150.559 470.949 m 143.777 470.949 l 142.531 470.422 143.063 471.301 
141.457 469.18 c 141.457 456.996 l 141.457 455.938 141.992 455.586 
143.063 455.227 c 149.844 455.227 l 156.266 455.227 159.656 467.594 
150.559 470.949 c h
150.559 470.949 m S Q
195.074 155.652 m 179.813 155.652 167.445 143.409 167.445 128.304 c 
167.445 113.202 179.813 100.956 195.074 100.956 c 210.328 100.956 
222.703 113.202 222.703 128.304 c 222.703 143.409 210.328 155.652 
195.074 155.652 c h
195.25 109.702 m 184.871 109.702 176.453 118.03 176.453 128.304 c 
176.453 138.577 184.871 146.913 195.25 146.913 c 205.629 146.913 
214.047 138.577 214.047 128.304 c 214.047 118.03 205.629 109.702 195.25 
109.702 c h
195.25 109.702 m f
q 1 0 0 -1 0 580.799988 cm
195.074 425.148 m 179.813 425.148 167.445 437.391 167.445 452.496 c 
167.445 467.598 179.813 479.844 195.074 479.844 c 210.328 479.844 
222.703 467.598 222.703 452.496 c 222.703 437.391 210.328 425.148 
195.074 425.148 c h
195.25 471.098 m 184.871 471.098 176.453 462.77 176.453 452.496 c 
176.453 442.223 184.871 433.887 195.25 433.887 c 205.629 433.887 
214.047 442.223 214.047 452.496 c 214.047 462.77 205.629 471.098 195.25 
471.098 c h
195.25 471.098 m S Q
223.355 154.003 m 250.293 154.003 l 253.688 152.585 253.152 147.82 
250.652 146.23 c 241.375 146.23 l 241.375 102.964 l 239.23 99.609 
234.418 100.495 232.988 102.612 c 232.988 146.054 l 223.172 146.054 l 
219.781 148.698 221.035 153.472 223.355 154.003 c h
223.355 154.003 m f
q 1 0 0 -1 0 580.799988 cm
223.355 426.797 m 250.293 426.797 l 253.688 428.215 253.152 432.98 
250.652 434.57 c 241.375 434.57 l 241.375 477.836 l 239.23 481.191 
234.418 480.305 232.988 478.188 c 232.988 434.746 l 223.172 434.746 l 
219.781 432.102 221.035 427.328 223.355 426.797 c h
223.355 426.797 m S Q
261.184 152.234 m 261.184 102.964 l 262.789 101.554 268.672 101.554 
269.742 102.964 c 269.742 152.058 l 267.426 154.355 263.676 154.886 
261.184 152.234 c h
261.184 152.234 m f
q 1 0 0 -1 0 580.799988 cm
261.184 428.566 m 261.184 477.836 l 262.789 479.246 268.672 479.246 
269.742 477.836 c 269.742 428.742 l 267.426 426.445 263.676 425.914 
261.184 428.566 c h
261.184 428.566 m S Q
307.746 153.827 m 270.992 160.89 260.465 100.312 307.746 101.902 c 
309.707 103.14 308.992 107.558 307.746 108.257 c 281.523 106.316 
272.777 146.23 307.031 146.054 c 310.246 147.999 308.816 153.472 
307.746 153.827 c h
307.746 153.827 m f
q 1 0 0 -1 0 580.799988 cm
307.746 426.973 m 270.992 419.91 260.465 480.488 307.746 478.898 c 
309.707 477.66 308.992 473.242 307.746 472.543 c 281.523 474.484 
272.777 434.57 307.031 434.746 c 310.246 432.801 308.816 427.328 
307.746 426.973 c h
307.746 426.973 m S Q
315.418 111.62 m 314.168 111.085 313.813 110.378 314.168 109.32 c 
314.168 104.374 l 314.527 103.316 315.957 102.437 315.957 102.437 c 
325.406 98.902 337.66 102.105 341.824 105.433 c 345.57 108.433 351.281 
123.804 338.434 128.925 c 328.93 132.71 323.457 132.288 322.199 136.339 
c 320.055 143.23 323.801 147.112 328.621 147.292 c 333.438 147.464 
337.543 146.581 339.504 145.878 c 341.465 145.171 341.293 145.523 
341.824 146.23 c 342.008 151.351 l 341.824 152.585 341.465 152.409 
341.465 152.409 c 332.188 156.296 320.305 154.288 315.773 147.112 c 
311.313 140.05 313.098 126.628 327.012 124.152 c 341.648 123.976 
343.078 109.023 328.266 108.433 c 325.234 109.499 322.02 106.499 
315.418 111.62 c h
315.418 111.62 m f
q 1 0 0 -1 0 580.799988 cm
315.418 469.18 m 314.168 469.715 313.813 470.422 314.168 471.48 c 
314.168 476.426 l 314.527 477.484 315.957 478.363 315.957 478.363 c 
325.406 481.898 337.66 478.695 341.824 475.367 c 345.57 472.367 351.281 
456.996 338.434 451.875 c 328.93 448.09 323.457 448.512 322.199 444.461 
c 320.055 437.57 323.801 433.688 328.621 433.508 c 333.438 433.336 
337.543 434.219 339.504 434.922 c 341.465 435.629 341.293 435.277 
341.824 434.57 c 342.008 429.449 l 341.824 428.215 341.465 428.391 
341.465 428.391 c 332.188 424.504 320.305 426.512 315.773 433.688 c 
311.313 440.75 313.098 454.172 327.012 456.648 c 341.648 456.824 
343.078 471.777 328.266 472.367 c 325.234 471.301 322.02 474.301 
315.418 469.18 c h
315.418 469.18 m S Q
322.559 86.542 m 322.559 43.628 l 323.988 39.566 324.52 38.855 327.727 
37.796 c 346.461 37.796 l 347.719 40.273 347.535 44.687 345.93 45.57 c 
332.906 45.57 l 331.656 46.628 331.301 47.159 331.117 47.862 c 331.117 
58.987 l 331.301 59.87 331.66 60.046 332.547 60.23 c 344.684 60.23 l 
347 61.288 346.289 66.234 345.039 67.292 c 343.789 68.351 344.5 67.644 
344.5 67.644 c 332.723 67.644 l 331.477 68.702 330.762 69.761 330.762 
70.823 c 330.586 71.355 330.762 80.534 330.762 80.534 c 331.117 81.597 
331.832 82.48 332.723 82.655 c 345.039 82.655 l 347.891 83.362 347.891 
87.425 345.93 89.722 c 327.551 89.722 l 325.234 89.187 323.629 89.37 
322.559 86.542 c h
322.559 86.542 m f
q 1 0 0 -1 0 580.799988 cm
322.559 494.258 m 322.559 537.172 l 323.988 541.234 324.52 541.945 
327.727 543.004 c 346.461 543.004 l 347.719 540.527 347.535 536.113 
345.93 535.23 c 332.906 535.23 l 331.656 534.172 331.301 533.641 
331.117 532.938 c 331.117 521.813 l 331.301 520.93 331.66 520.754 
332.547 520.57 c 344.684 520.57 l 347 519.512 346.289 514.566 345.039 
513.508 c 343.789 512.449 344.5 513.156 344.5 513.156 c 332.723 513.156 
l 331.477 512.098 330.762 511.039 330.762 509.977 c 330.586 509.445 
330.762 500.266 330.762 500.266 c 331.117 499.203 331.832 498.32 
332.723 498.145 c 345.039 498.145 l 347.891 497.438 347.891 493.375 
345.93 491.078 c 327.551 491.078 l 325.234 491.613 323.629 491.43 
322.559 494.258 c h
322.559 494.258 m S Q
287.766 89.37 m 314.703 89.37 l 318.094 87.952 317.563 83.183 315.063 
81.597 c 305.781 81.597 l 305.781 38.331 l 303.637 34.976 298.828 
35.851 297.398 37.972 c 297.398 81.421 l 287.582 81.421 l 284.199 
84.066 285.445 88.835 287.766 89.37 c h
287.766 89.37 m f
q 1 0 0 -1 0 580.799988 cm
287.766 491.43 m 314.703 491.43 l 318.094 492.848 317.563 497.617 
315.063 499.203 c 305.781 499.203 l 305.781 542.469 l 303.637 545.824 
298.828 544.949 297.398 542.828 c 297.398 499.379 l 287.582 499.379 l 
284.199 496.734 285.445 491.965 287.766 491.43 c h
287.766 491.43 m S Q
202.301 89.722 m 229.242 89.722 l 232.633 88.304 232.098 83.538 229.598 
81.945 c 220.32 81.945 l 220.32 38.679 l 218.18 35.327 213.363 36.21 
211.934 38.327 c 211.934 81.769 l 202.121 81.769 l 198.73 84.421 199.98 
89.187 202.301 89.722 c h
202.301 89.722 m f
q 1 0 0 -1 0 580.799988 cm
202.301 491.078 m 229.242 491.078 l 232.633 492.496 232.098 497.262 
229.598 498.855 c 220.32 498.855 l 220.32 542.121 l 218.18 545.473 
213.363 544.59 211.934 542.473 c 211.934 499.031 l 202.121 499.031 l 
198.73 496.379 199.98 491.613 202.301 491.078 c h
202.301 491.078 m S Q
181.066 88.659 m 181.066 39.39 l 182.672 37.972 188.563 37.972 189.633 
39.39 c 189.633 88.484 l 187.316 90.78 183.566 91.304 181.066 88.659 c 
h
181.066 88.659 m f
q 1 0 0 -1 0 580.799988 cm
181.066 492.141 m 181.066 541.41 l 182.672 542.828 188.563 542.828 
189.633 541.41 c 189.633 492.316 l 187.316 490.02 183.566 489.496 
181.066 492.141 c h
181.066 492.141 m S Q
239.77 88.304 m 239.77 52.632 l 243.512 35.152 272.594 26.847 279.379 
51.925 c 279.379 87.777 l 279.02 89.542 277.418 90.07 277.418 90.07 c 
272.953 90.07 l 271.707 89.542 271.531 89.187 271.348 88.484 c 271.348 
52.984 l 270.277 45.214 254.402 37.972 248.332 53.167 c 247.977 88.659 
l 247.262 89.894 246.902 89.894 246.371 90.07 c 242.98 90.07 l 241.551 
89.894 240.66 90.245 239.77 88.304 c h
239.77 88.304 m f
q 1 0 0 -1 0 580.799988 cm
239.77 492.496 m 239.77 528.168 l 243.512 545.648 272.594 553.953 
279.379 528.875 c 279.379 493.023 l 279.02 491.258 277.418 490.73 
277.418 490.73 c 272.953 490.73 l 271.707 491.258 271.531 491.613 
271.348 492.316 c 271.348 527.816 l 270.277 535.586 254.402 542.828 
248.332 527.633 c 247.977 492.141 l 247.262 490.906 246.902 490.906 
246.371 490.73 c 242.98 490.73 l 241.551 490.906 240.66 490.555 239.77 
492.496 c h
239.77 492.496 m S Q
142.887 89.894 m 169.828 89.894 l 173.219 88.484 172.68 83.714 170.184 
82.12 c 160.906 82.12 l 160.906 38.855 l 158.766 35.503 153.945 36.386 
152.523 38.503 c 152.523 81.945 l 142.707 81.945 l 139.316 84.601 
140.563 89.37 142.887 89.894 c h
142.887 89.894 m f
q 1 0 0 -1 0 580.799988 cm
142.887 490.906 m 169.828 490.906 l 173.219 492.316 172.68 497.086 
170.184 498.68 c 160.906 498.68 l 160.906 541.945 l 158.766 545.297 
153.945 544.414 152.523 542.297 c 152.523 498.855 l 142.707 498.855 l 
139.316 496.199 140.563 491.43 142.887 490.906 c h
142.887 490.906 m S Q
106.133 48.218 m 104.879 47.687 104.523 46.976 104.879 45.921 c 104.879 
40.972 l 105.238 39.913 106.668 39.038 106.668 39.038 c 116.125 35.503 
128.379 38.702 132.535 42.038 c 136.281 45.034 141.992 60.405 129.148 
65.527 c 119.648 69.308 114.168 68.89 112.91 72.941 c 110.773 79.827 
114.516 83.714 119.336 83.89 c 124.152 84.066 128.254 83.179 130.215 
82.48 c 132.184 81.769 132 82.12 132.535 82.831 c 132.715 87.952 l 
132.535 89.187 132.184 89.011 132.184 89.011 c 122.898 92.898 111.016 
90.89 106.484 83.714 c 102.027 76.652 103.809 63.234 117.73 60.753 c 
132.359 60.577 133.793 45.624 118.977 45.034 c 115.941 46.101 112.734 
43.097 106.133 48.218 c h
106.133 48.218 m f
q 1 0 0 -1 0 580.799988 cm
106.133 532.582 m 104.879 533.113 104.523 533.824 104.879 534.879 c 
104.879 539.828 l 105.238 540.887 106.668 541.762 106.668 541.762 c 
116.125 545.297 128.379 542.098 132.535 538.762 c 136.281 535.766 
141.992 520.395 129.148 515.273 c 119.648 511.492 114.168 511.91 112.91 
507.859 c 110.773 500.973 114.516 497.086 119.336 496.91 c 124.152 
496.734 128.254 497.621 130.215 498.32 c 132.184 499.031 132 498.68 
132.535 497.969 c 132.715 492.848 l 132.535 491.613 132.184 491.789 
132.184 491.789 c 122.898 487.902 111.016 489.91 106.484 497.086 c 
102.027 504.148 103.809 517.566 117.73 520.047 c 132.359 520.223 
133.793 535.176 118.977 535.766 c 115.941 534.699 112.734 537.703 
106.133 532.582 c h
106.133 532.582 m S Q
38.328 89.011 m 38.328 39.741 l 39.938 38.331 45.824 38.331 46.895 
39.741 c 46.895 88.835 l 44.578 91.128 40.828 91.663 38.328 89.011 c h
38.328 89.011 m f
q 1 0 0 -1 0 580.799988 cm
38.328 491.789 m 38.328 541.059 l 39.938 542.469 45.824 542.469 46.895 
541.059 c 46.895 491.965 l 44.578 489.672 40.828 489.137 38.328 491.789 
c h
38.328 491.789 m S Q
58.492 39.741 m 58.492 87.241 l 59.738 90.245 63.844 93.073 67.234 
89.011 c 88.289 52.456 l 89.18 51.925 89.359 51.925 89.535 52.632 c 
89.535 87.777 l 90.426 90.605 90.25 89.542 90.965 89.722 c 95.43 89.722 
l 96.32 89.187 97.207 88.659 97.207 88.128 c 97.207 41.859 l 96.137 
37.976 92.039 34.976 87.934 39.39 c 67.594 74.534 l 66.695 75.241 
65.988 76.12 65.633 74.71 c 65.633 40.097 l 65.273 39.038 64.375 38.507 
64.375 38.507 c 60.098 38.507 l 59.023 38.679 58.848 39.214 58.492 
39.741 c h
58.492 39.741 m f
q 1 0 0 -1 0 580.799988 cm
58.492 541.059 m 58.492 493.559 l 59.738 490.555 63.844 487.727 67.234 
491.789 c 88.289 528.344 l 89.18 528.875 89.359 528.875 89.535 528.168 
c 89.535 493.023 l 90.426 490.195 90.25 491.258 90.965 491.078 c 95.43 
491.078 l 96.32 491.613 97.207 492.141 97.207 492.672 c 97.207 538.941 
l 96.137 542.824 92.039 545.824 87.934 541.41 c 67.594 506.266 l 66.695 
505.559 65.988 504.68 65.633 506.09 c 65.633 540.703 l 65.273 541.762 
64.375 542.293 64.375 542.293 c 60.098 542.293 l 59.023 542.121 58.848 
541.586 58.492 541.059 c h
58.492 541.059 m S Q
Q
showpage
%%Trailer
count op_count sub {pop} repeat
countdictstack dict_count sub {end} repeat
cairo_eps_state restore
%%EOF
